6-6-2014
1C-3E-84-1D-74-0C

19:51:46,Exited,281-M-59[19:25]
19:51:48,Entered,291-M-59
19:52:56,Exited,291-M-59[1:9]
19:52:59,Entered,292-M-39
19:53:5,Entered,293-M-39
19:53:7,Exited,293-M-39[0:3]
19:53:15,Entered,294-M-39
19:53:16,Exited,294-M-39[0:1]
19:53:20,Exited,292-M-39[0:22]
19:54:3,Entered,295-M-39
19:54:28,Exited,295-M-39[0:25]
19:54:41,Entered,296-M-39
19:54:41,Entered,296-M-39
19:58:31,Exited,296-M-39[3:49]
19:58:33,Entered,299-M-59
19:58:44,Exited,299-M-59[0:11]
19:58:47,Entered,301-M-39
20:2:19,Exited,301-M-39[3:32]
20:2:22,Entered,304-M-39
20:2:58,Exited,304-M-39[0:36]
20:4:25,Entered,305-M-39
20:5:37,Exited,305-M-39[1:12]
20:5:47,Entered,306-M-39
20:5:47,Entered,306-M-39
20:6:21,Exited,306-M-39[0:34]
20:6:26,Entered,307-M-39
20:6:36,Exited,307-M-39[0:10]
20:6:40,Entered,308-M-59
20:7:38,Exited,308-M-59[0:59]
20:8:27,Entered,309-M-39
20:10:48,Exited,309-M-39[2:21]
20:11:36,Entered,310-M-59
20:17:2,Exited,310-M-59[5:26]
20:22:0,Entered,312-M-39
20:34:52,Exited,312-M-39[12:52]
20:36:46,Entered,324-M-39
20:40:21,Exited,324-M-39[3:34]