6-6-2014
9E-42-28-6B-31-3C

12:4:5,Entered,190-M-39
12:7:23,Exited,190-M-39[3:19]
12:8:2,Entered,202-M-39
12:10:18,Exited,202-M-39[2:16]
12:10:37,Entered,205-M-39
12:11:11,Exited,205-M-39[0:33]
12:11:13,Entered,206-M-39
12:16:32,Exited,206-M-39[5:18]
12:17:22,Entered,209-M-39
12:22:31,Exited,209-M-39[5:9]
12:22:32,Entered,212-M-39
12:22:32,Entered,212-M-39
12:23:59,Exited,212-M-39[1:28]
12:24:2,Entered,214-M-39
12:27:26,Exited,214-M-39[3:24]
12:27:30,Entered,216-M-39
12:40:51,Exited,216-M-39[13:21]
12:40:54,Entered,219-M-39
12:41:8,Entered,221-M-39
12:41:22,Exited,221-M-39[0:14]
12:41:34,Entered,226-F-39
12:41:34,Entered,226-F-39
12:42:2,Exited,226-F-39[0:28]
12:43:56,Entered,233-M-39
12:43:58,Exited,233-M-39[0:1]
12:47:27,Entered,244-M-39
12:47:43,Exited,244-M-39[0:16]
12:47:44,Entered,245-M-39
12:47:44,Entered,245-M-39
12:47:44,Entered,245-M-39
12:47:44,Entered,245-M-39
12:48:0,Exited,245-M-39[0:16]
12:48:32,Entered,258-M-39
12:48:34,Exited,219-M-39[7:40]
12:48:44,Exited,258-M-39[0:20]
12:48:55,Entered,267-M-39
12:48:55,Entered,267-M-39
12:48:55,Entered,268-M-39
12:48:55,Entered,267-M-39
12:48:55,Entered,268-M-39
12:48:55,Entered,267-M-39
12:48:55,Entered,268-M-39
12:48:55,Entered,267-M-39
12:48:55,Entered,268-M-39
12:48:55,Entered,267-M-39
12:48:56,Entered,267-M-39
12:49:10,Exited,267-M-39[0:16]
12:49:12,Entered,269-M-39
12:49:13,Exited,269-M-39[0:1]
12:49:32,Entered,270-M-39
12:50:3,Exited,270-M-39[0:32]
12:50:14,Entered,273-F-39
12:51:23,Exited,273-F-39[1:9]
12:51:24,Entered,274-F-39
12:52:48,Exited,274-F-39[1:24]
12:52:56,Entered,275-M-59
12:52:56,Entered,275-M-59
12:52:56,Entered,275-M-59
12:52:56,Entered,275-M-59
12:52:56,Entered,275-M-59
12:52:56,Entered,275-M-59
12:52:56,Entered,275-M-59
12:52:56,Entered,275-M-59
12:52:56,Entered,275-M-59
12:52:57,Entered,275-M-59
12:52:57,Entered,275-M-59
12:52:57,Entered,275-M-59
12:52:57,Entered,275-M-59
12:52:57,Entered,275-M-59
12:52:57,Entered,275-M-59
12:52:57,Entered,275-M-59
12:52:57,Entered,275-M-59
12:52:57,Entered,275-M-59
12:52:57,Entered,275-M-59
12:52:57,Entered,275-M-59
12:52:57,Entered,275-M-59
12:52:57,Exited,268-M-39[4:2]
12:52:57,Entered,275-M-59
12:52:57,Entered,275-M-59
12:52:57,Entered,275-M-59
12:52:57,Entered,275-M-59
12:52:58,Entered,275-M-59
12:52:58,Entered,275-M-59
12:52:58,Entered,275-M-59
12:52:58,Entered,275-M-59
12:52:58,Entered,275-M-59
12:52:58,Entered,275-M-59
12:52:58,Entered,275-M-59
12:52:58,Entered,275-M-59
12:53:4,Entered,278-M-39
12:53:4,Entered,278-M-39
12:53:4,Entered,278-M-39
12:54:9,Exited,278-M-39[1:6]
12:54:29,Entered,281-M-39
12:56:6,Exited,281-M-39[1:37]
12:56:16,Exited,275-M-59[3:22]
12:56:20,Entered,288-M-39
12:56:22,Entered,287-M-39
12:56:22,Entered,287-M-39
12:56:29,Exited,288-M-39[0:10]
12:56:45,Entered,292-M-39
12:57:8,Exited,287-M-39[0:49]
12:57:20,Entered,302-M-39
12:57:32,Exited,292-M-39[0:47]
12:57:42,Entered,313-F-39
12:58:20,Exited,313-F-39[0:44]